Normalize responses manually — ar_normalize_manual • associatoR
…
    Examples

ar_import(intelligence,
          participant = participant_id,
          cue = cue,
          response = response,
          participant_vars = c(gender, education),
          response_vars = c(response_position, response_level)) %>%
  ar_normalize_manual(trimws, which = "left")
#> 
#> ── An associatoR object ────────────────────────────────────────────────────────
#> 
#> participants
#> # A tibble: 1,000 × 3
#>      id gender education  
#>   <int> <chr>  <chr>      
#> 1     1 female high school
#> 2     2 female high school
#> 3     3 female high school
#> 4     4 female high school
#> 5     5 female high school
#> # ℹ 995 more rows
#> 
#> cues
#> # A tibble: 553 × 1
#>   cue         
#>   <chr>       
#> 1 intelligence
#> 2 Brain       
#> 3 Knowledge   
#> 4 Wisdom      
#> 5 IQ          
#> # ℹ 548 more rows
#> 
#> responses
#> # A tibble: 29,820 × 6
#>      id cue          response  response_position response_level response_orig
#>   <int> <chr>        <chr>                 <int>          <dbl> <chr>        
#> 1     1 intelligence Brain                     1              1 Brain        
#> 2     1 intelligence Knowledge                 2              1 Knowledge    
#> 3     1 intelligence Wisdom                    3              1 Wisdom       
#> 4     1 intelligence IQ                        4              1 IQ           
#> 5     1 intelligence Learning                  5              1 Learning     
#> # ℹ 29,815 more rows
…
