Normalize responses — ar_normalize • associatoR
…
    Examples

ar_import(intelligence,
          participant = participant_id,
          cue = cue,
          response = response,
          participant_vars = c(gender, education),
          response_vars = c(response_position, response_level)) %>%
  ar_normalize(case = "lower", punct = "all")
#> 197 entries were dropped from cues due to normalizing.
#> 
#> ── An associatoR object ────────────────────────────────────────────────────────
#> 
#> participants
#> # A tibble: 1,000 × 3
#>      id gender education  
#>   <dbl> <chr>  <chr>      
#> 1     1 male   high school
#> 2     2 male   high school
#> 3     3 male   high school
#> 4     4 male   high school
#> 5     5 male   high school
#> # ℹ 995 more rows
#> 
#> cues
#> # A tibble: 607 × 2
#>   cue          cue_original
#>   <chr>        <chr>       
#> 1 intelligence intelligence
#> 2 einstein     Einstein    
#> 3 books        books       
#> 4 iq tests     IQ tests    
#> 5 college      college     
#> # ℹ 602 more rows
#> 
#> responses
#> # A tibble: 29,882 × 7
#>      id cue          response     response_position response_level cue_original
#>   <dbl> <chr>        <chr>                    <dbl>          <dbl> <chr>       
#> 1     1 intelligence einstein                     1              1 intelligence
#> 2     1 intelligence books                        2              1 intelligence
#> 3     1 intelligence iq tests                     3              1 intelligence
#> 4     1 intelligence college                      4              1 intelligence
#> 5     1 intelligence smart people                 5              1 intelligence
#> # ℹ 29,877 more rows
#> # ℹ 1 more variable: response_original <chr>
…
