Project embeddings — ar_project_embedding • associatoR
…
ar_import(intelligence,
          participant = participant_id,
          cue = cue,
          response = response,
          participant_vars = c(gender, education),
          response_vars = c(response_position, response_level)) %>%
  ar_set_targets(targets = "cues") %>%
  ar_embed_targets() %>%
  ar_project_embedding()
#> Warning: 432 targets with count < min_count were dropped from embedding.
#> 
#> ── An associatoR object ────────────────────────────────────────────────────────
#> 
#> participants
#> # A tibble: 1,000 × 3
#>      id gender education  
#>   <dbl> <chr>  <chr>      
#> 1     1 male   high school
#> 2     2 male   high school
#> 3     3 male   high school
#> 4     4 male   high school
#> 5     5 male   high school
#> # ℹ 995 more rows
#> 
#> cues
#> # A tibble: 792 × 1
#>   cue         
#>   <chr>       
#> 1 intelligence
#> 2 Einstein    
#> 3 books       
#> 4 science     
#> 5 technology  
#> # ℹ 787 more rows
#> 
#> responses
#> # A tibble: 29,892 × 5
#>      id cue          response   response_position response_level
#>   <dbl> <chr>        <chr>                  <dbl>          <dbl>
#> 1     1 intelligence Einstein                   1              1
#> 2     1 intelligence books                      2              1
#> 3     1 intelligence science                    3              1
#> 4     1 intelligence technology                 4              1
#> 5     1 intelligence university                 5              1
#> # ℹ 29,887 more rows
#> 
#> targets
#> # A tibble: 792 × 1
#>   target      
#>   <chr>       
#> 1 intelligence
#> 2 Einstein    
#> 3 books       
#> 4 science     
#> 5 technology  
#> # ℹ 787 more rows
#> 
#> target_embedding
#> # A tibble: 360 × 3
#>   target        dim_1  dim_2
#>   <chr>         <dbl>  <dbl>
#> 1 intelligence  1.06  -0.411
#> 2 Einstein      0.519 -0.174
#> 3 books         1.13   0.397
#> 4 science      -0.610 -0.940
#> 5 technology    0.824  0.391
#> # ℹ 355 more rows
…
